…
mrtrashwheel_clean_df <- mrtrashwheel_df %>% 
  filter(!is.na(dumpster)) %>% 
  mutate(
    date = as.Date(as.character(date)),
    sports_balls = as.integer(round(sports_balls))
  )


mrtrashwheel_clean_df %>% 
  select(-x15,-x16)
```

    ## # A tibble: 651 × 14
    ##    dumpster month year  date       weight_tons volume_cubic_yards
    ##       <dbl> <chr> <chr> <date>           <dbl>              <dbl>
    ##  1        1 May   2014  2014-05-16        4.31                 18
    ##  2        2 May   2014  2014-05-16        2.74                 13
    ##  3        3 May   2014  2014-05-16        3.45                 15
    ##  4        4 May   2014  2014-05-17        3.1                  15
    ##  5        5 May   2014  2014-05-17        4.06                 18
    ##  6        6 May   2014  2014-05-20        2.71                 13
    ##  7        7 May   2014  2014-05-21        1.91                  8
    ##  8        8 May   2014  2014-05-28        3.7                  16
    ##  9        9 June  2014  2014-06-05        2.52                 14
    ## 10       10 June  2014  2014-06-11        3.76                 18
    ## # ℹ 641 more rows
    ## # ℹ 8 more variables: plastic_bottles <dbl>, polystyrene <dbl>,
    ## #   cigarette_butts <dbl>, glass_bottles <dbl>, plastic_bags <dbl>,
    ## #   wrappers <dbl>, sports_balls <int>, homes_powered <dbl>
…
